CD, IN, DT
CD, JJ, NNS
CD, NN, IN
CD, NNS, RB
CD, NNS, PRP
CD, NNS, TO
CD, NNS, WDT
CD, NNS, WRB
DT, CD, JJS
DT, VBP, DT
DT, VBZ, DT
DT, VBZ, WP
DT, VBZ, WRB
PRP, MD, RB
RB, VBP, DT
WRB, PRP, MD
WRB, TO, VB